{
    "id": "androidapp-cs",
    "name": "AndroidApp-CS",
    "source": "git://github.com/brahima/android-template.git",
    "description" : "LM Android ClickStart App",
    "icon" : "https://d3ko533tu1ozfq.cloudfront.net/clickstart/driod.png",
    "disabled" : false,
    "build-with-jenkins": {
        "plugins" : ["git","appaloosa-plugin"],
        "template": {
            "type": "https://bitbucket.org/brahimalm/androidapp-cs/raw/master/jenkins-config.xml",
            "options": {
            }
        }
    }
}
